// This file is part of the SV-Benchmarks collection of verification tasks:
// https://gitlab.com/sosy-lab/benchmarking/sv-benchmarks
//
// SPDX-FileCopyrightText: 2022-2023 University of Tartu & Technische Universität München
//
// SPDX-License-Identifier: MIT

extern void __assert_fail (const char *__assertion, const char *__file,
      unsigned int __line, const char *__function)
     __attribute__ ((__nothrow__ , __leaf__)) __attribute__ ((__noreturn__));
extern void __assert_perror_fail (int __errnum, const char *__file,
      unsigned int __line, const char *__function)
     __attribute__ ((__nothrow__ , __leaf__)) __attribute__ ((__noreturn__));
extern void __assert (const char *__assertion, const char *__file, int __line)
     __attribute__ ((__nothrow__ , __leaf__)) __attribute__ ((__noreturn__));

extern void abort(void);
void reach_error() { ((void) sizeof ((0) ? 1 : 0), __extension__ ({ if (0) ; else __assert_fail ("0", "68-longjmp_16-counting-local-one-method_unknown_1_neg.c", 3, __extension__ __PRETTY_FUNCTION__); })); }
void __VERIFIER_assert(int cond) { if(!(cond)) { ERROR: {reach_error();abort();} } }

typedef long int __jmp_buf[8];
typedef struct
{
  unsigned long int __val[(1024 / (8 * sizeof (unsigned long int)))];
} __sigset_t;
struct __jmp_buf_tag
  {
    __jmp_buf __jmpbuf;
    int __mask_was_saved;
    __sigset_t __saved_mask;
  };
typedef struct __jmp_buf_tag jmp_buf[1];
extern int setjmp (jmp_buf __env) __attribute__ ((__nothrow__));
extern int __sigsetjmp (struct __jmp_buf_tag __env[1], int __savemask) __attribute__ ((__nothrow__));
extern int _setjmp (struct __jmp_buf_tag __env[1]) __attribute__ ((__nothrow__));
extern void longjmp (struct __jmp_buf_tag __env[1], int __val)
     __attribute__ ((__nothrow__)) __attribute__ ((__noreturn__));
extern void _longjmp (struct __jmp_buf_tag __env[1], int __val)
     __attribute__ ((__nothrow__)) __attribute__ ((__noreturn__));
typedef struct __jmp_buf_tag sigjmp_buf[1];
extern void siglongjmp (sigjmp_buf __env, int __val)
     __attribute__ ((__nothrow__)) __attribute__ ((__noreturn__));

jmp_buf my_jump_buffer;
int main(void)
{
    volatile int count = 0;
    _setjmp (my_jump_buffer);
    __VERIFIER_assert(!(count == 0));
    if (count < 5) {
        count++;
        longjmp(my_jump_buffer, 1);
    }
}
